…
## # A tibble: 5 x 1
##   arrival_station   
##   <chr>             
## 1 Paris Est         
## 2 Paris Lyon        
## 3 Paris Montparnasse
## 4 Paris Nord        
## 5 Paris Vaugirard

european_stations %>% 
  select(name) %>%
  filter(str_detect(name, "Paris")) %>% 
  distinct()

## # A tibble: 39 x 1
##    name                          
##    <chr>                         
##  1 Paris Gare de Lyon RER        
##  2 Atlb Paris Nord               
##  3 Paris Pereire Saussure        
##  4 Paris Ampère Wagram           
##  5 Paris Bercy Commercial        
##  6 Paris Gare du Nord            
##  7 Paris Montparnasse 3 Vaugirard
##  8 Paris Tolbiac TAA             
##  9 Paris Section urbaine         
## 10 Paris Gare de Lyon A          
## # ... with 29 more rows
…
essai_gare <- select(essai_gare,
                     name_departure = UT) %>% 
  mutate(name_departure = str_trim(name_departure)) %>% 
  na.omit()

And try again.

fuzzy_left_join(essai_tgv,
                essai_gare,
                by = c("departure_station" = "name_departure"),
                match_fun = str_detect) %>% 
  filter(is.na(name_departure))

## # A tibble: 23 x 2
##    departure_station  name_departure
##    <chr>              <chr>         
##  1 Lyon Part Dieu     <NA>          
##  2 Mulhouse Ville     <NA>          
##  3 Paris Montparnasse <NA>          
##  4 Lille              <NA>          
##  5 Nancy              <NA>          
##  6 Rennes             <NA>          
##  7 Nantes             <NA>          
##  8 Zurich             <NA>          
##  9 Metz               <NA>          
## 10 Italie             <NA>          
## # ... with 13 more rows

It is a bit better, I get 23 empty lines. Actually, a bit more because I now have some duplicates (Avignon, for example, because the Avignon station gets two matches from the right hand file, so it doubles its lines).

Let’s try with the other fuzzy join function, which uses a distance to match elements. I am afraid it will yield many false positive, but let’s try.

stringdist_left_join(essai_tgv,
                     essai_gare,
                     by = c("departure_station" = "name_departure"),
                     max_dist = 1,
                     ignore_case = FALSE) %>% 
  select(departure_station, name_departure) %>%  filter(is.na(name_departure))

## # A tibble: 24 x 2
##    departure_station  name_departure
##    <chr>              <chr>         
##  1 Lyon Part Dieu     <NA>          
##  2 Mulhouse Ville     <NA>          
##  3 Paris Montparnasse <NA>          
##  4 Macon Loche        <NA>          
##  5 Nancy              <NA>          
##  6 Rennes             <NA>          
##  7 Valence Alixan Tgv <NA>          
##  8 Zurich             <NA>          
##  9 Metz               <NA>          
## 10 Italie             <NA>          
## # ... with 14 more rows
…
The stations in the Paris region are awfully crowded. The Rhone-Alpes region, as well as along the Mediterranean region have a decent coverage as well. And we can see what French people call “the empty diagonal”, with a much lower number of inhabitant reflected in this dataset.

OK, now we want to add the passenger data on the map. To get a feel of the number of passengers in the largest stations, let’s sort the file.

station_all %>% 
  select(nom_de_la_gare, total_voyageurs_2017) %>% 
  filter(total_voyageurs_2017 >  10000000) %>% 
  arrange(desc(total_voyageurs_2017))

## # A tibble: 48 x 2
## # Groups:   nom_de_la_gare [47]
##    nom_de_la_gare         total_voyageurs_2017
##    <chr>                                 <dbl>
##  1 Total                            2591307045
##  2 Paris Gare du Nord                211771117
##  3 Paris Saint-Lazare                107875417
##  4 Paris Gare de Lyon                100560512
##  5 Paris Montparnasse                 54194496
##  6 Haussmann Saint-Lazare             44647200
##  7 Magenta                            41256000
##  8 Juvisy                             38195637
##  9 Paris Est                          35411032
## 10 Lyon Part Dieu                     31884905
## # ... with 38 more rows
…
